{"data": {"hits": [{"file_name": "6e992c9b-1a16-475f-be24-04da7f9d351e.htseq.counts.gz", "cases": [{"project": {"project_id": "TARGET-AML", "primary_site": "Blood"}, "demographic": {"gender": "male"}, "samples": [{"sample_id": "effcf7b4-46c6-5723-a6cd-cf225c15ddc3"}]}], "file_id": "0c298dcb-fdba-4b3c-a3fc-d50177603387", "data_type": "Gene Expression Quantification", "id": "0c298dcb-fdba-4b3c-a3fc-d50177603387"}, {"file_name": "8f8836f4-fb20-41df-a310-1d69a52c87c1.htseq.counts.gz", "cases": [{"project": {"project_id": "TARGET-WT", "primary_site": "Kidney"}, "demographic": {"gender": "female"}, "samples": [{"sample_id": "5fc6285d-24b8-5464-ae6b-2ff806c7839c"}]}], "file_id": "b47be22e-3fe9-4582-b520-774efd252d61", "data_type": "Gene Expression Quantification", "id": "b47be22e-3fe9-4582-b520-774efd252d61"}, {"file_name": "6dcc6a75-5f5d-4a76-89b1-f444f2d0eeff.htseq.counts.gz", "cases": [{"project": {"project_id": "TARGET-WT", "primary_site": "Kidney"}, "demographic": {"gender": "male"}, "samples": [{"sample_id": "04948c13-880f-5330-8f24-2c865b1dd1c7"}]}], "file_id": "4b4158b6-b61b-4cb5-ad68-83e253da23b5", "data_type": "Gene Expression Quantification", "id": "4b4158b6-b61b-4cb5-ad68-83e253da23b5"}, {"file_name": "c602c2e1-5053-4414-a461-8ed84f88f41d.htseq.counts.gz", "cases": [{"project": {"project_id": "TARGET-AML", "primary_site": "Blood"}, "demographic": {"gender": "male"}, "samples": [{"sample_id": "38c06879-92ad-5ebf-be63-c1d39dadcab7"}]}], "file_id": "08623f96-fd18-46f2-91f2-d54635f250c6", "data_type": "Gene Expression Quantification", "id": "08623f96-fd18-46f2-91f2-d54635f250c6"}, {"file_name": "e997c959-4683-44c7-8885-5b6e472bfb7b.htseq.counts.gz", "cases": [{"project": {"project_id": "TARGET-AML", "primary_site": "Blood"}, "demographic": {"gender": "female"}, "samples": [{"sample_id": "071e9ca1-a27b-5253-b18a-913c2fd58146"}]}], "file_id": "76d82cd8-bd4d-44d6-9075-7f2df9df27a4", "data_type": "Gene Expression Quantification", "id": "76d82cd8-bd4d-44d6-9075-7f2df9df27a4"}, {"file_name": "a9fd9d1c-348f-41a9-9da2-a72981ef1ae5.htseq.counts.gz", "cases": [{"project": {"project_id": "TARGET-AML", "primary_site": "Blood"}, "demographic": {"gender": "male"}, "samples": [{"sample_id": "42b3f623-c03d-5789-ad05-547114e0bbd9"}]}], "file_id": "43d4405a-aadc-4aa7-85a2-26a635effa10", "data_type": "Gene Expression Quantification", "id": "43d4405a-aadc-4aa7-85a2-26a635effa10"}, {"file_name": "279b261e-3ec4-44da-8d70-879ce84a79ab.htseq.counts", "cases": [{"project": {"project_id": "TARGET-NBL", "primary_site": "Nervous System"}, "demographic": {"gender": "male"}, "samples": [{"sample_id": "c17fa90b-3f32-53ef-93d4-095c019c175b"}]}], "file_id": "441dbe16-af52-4b0a-8d1c-cdcc9eda080d", "data_type": "Gene Expression Quantification", "id": "441dbe16-af52-4b0a-8d1c-cdcc9eda080d"}, {"file_name": "681c0c40-d376-41d4-ac3d-4fd5957e70c4.htseq.counts.gz", "cases": [{"project": {"project_id": "TARGET-AML", "primary_site": "Blood"}, "demographic": {"gender": "male"}, "samples": [{"sample_id": "923a7daa-9618-5c65-8f37-38cdf2142a6c"}]}], "file_id": "4657287d-dc12-4382-b4ce-4665e0f7ebcd", "data_type": "Gene Expression Quantification", "id": "4657287d-dc12-4382-b4ce-4665e0f7ebcd"}, {"file_name": "3ea58509-b7bb-479f-ba78-cf711980f1e3.htseq.counts.gz", "cases": [{"project": {"project_id": "TARGET-AML", "primary_site": "Blood"}, "demographic": {"gender": "male"}, "samples": [{"sample_id": "34b039bd-aa84-5cdd-85e0-77285da9b7a9"}]}], "file_id": "0c2d64e7-45d5-420a-83e3-b76d1b6fd052", "data_type": "Gene Expression Quantification", "id": "0c2d64e7-45d5-420a-83e3-b76d1b6fd052"}, {"file_name": "377eddaa-e0c5-4448-86cb-0d35735a6daf.htseq.counts.gz", "cases": [{"project": {"project_id": "TARGET-AML", "primary_site": "Blood"}, "demographic": {"gender": "male"}, "samples": [{"sample_id": "093a106d-a064-57ab-84c3-a30f81180217"}]}], "file_id": "f3c080c9-b323-4738-ba89-4032c06ae135", "data_type": "Gene Expression Quantification", "id": "f3c080c9-b323-4738-ba89-4032c06ae135"}, {"file_name": "e4220b7a-96e1-468b-9911-b1bf54ca0c09.htseq.counts", "cases": [{"project": {"project_id": "TARGET-NBL", "primary_site": "Nervous System"}, "demographic": {"gender": "male"}, "samples": [{"sample_id": "eecdae86-8775-5f2e-84bc-27b155b1777d"}]}], "file_id": "7aa6b6fb-a28b-4d16-ac90-84c2c6c0dff1", "data_type": "Gene Expression Quantification", "id": "7aa6b6fb-a28b-4d16-ac90-84c2c6c0dff1"}, {"file_name": "1c66c47f-0347-43e0-af54-71e24a8c9cab.htseq.counts.gz", "cases": [{"project": {"project_id": "TARGET-WT", "primary_site": "Kidney"}, "demographic": {"gender": "female"}, "samples": [{"sample_id": "20cf73c1-cb48-5e48-8b52-32b031055d1d"}]}], "file_id": "f3f18b42-1235-48d6-a2f5-4924d2272443", "data_type": "Gene Expression Quantification", "id": "f3f18b42-1235-48d6-a2f5-4924d2272443"}, {"file_name": "e6bb1330-c761-43a5-9d17-16da727232f1.htseq.counts.gz", "cases": [{"project": {"project_id": "TARGET-AML", "primary_site": "Blood"}, "demographic": {"gender": "male"}, "samples": [{"sample_id": "ff81a737-c173-59f3-ac9a-b918fa86952f"}]}], "file_id": "61822040-c477-4854-8fcd-9f6715667d7a", "data_type": "Gene Expression Quantification", "id": "61822040-c477-4854-8fcd-9f6715667d7a"}, {"file_name": "0974eec2-812c-4778-87c4-1a28864612d8.htseq.counts.gz", "cases": [{"project": {"project_id": "TARGET-WT", "primary_site": "Kidney"}, "demographic": {"gender": "female"}, "samples": [{"sample_id": "843b8c27-6683-5df0-abb6-76c26b5ec8f8"}]}], "file_id": "9bffbea1-6400-4ad7-af50-e67ebd35fb59", "data_type": "Gene Expression Quantification", "id": "9bffbea1-6400-4ad7-af50-e67ebd35fb59"}, {"file_name": "19709a7e-d7ae-45db-a8e6-5424c08e6dd6.htseq.counts", "cases": [{"project": {"project_id": "TARGET-NBL", "primary_site": "Nervous System"}, "demographic": {"gender": "female"}, "samples": [{"sample_id": "24e32c0c-f0e8-51a9-a730-2f3120856129"}]}], "file_id": "9b11d3a2-a193-4fdb-befa-f0cfd712338e", "data_type": "Gene Expression Quantification", "id": "9b11d3a2-a193-4fdb-befa-f0cfd712338e"}, {"file_name": "6cfe4458-1396-4646-bce7-e2bfbcdb6b86.htseq.counts.gz", "cases": [{"project": {"project_id": "TARGET-WT", "primary_site": "Kidney"}, "demographic": {"gender": "male"}, "samples": [{"sample_id": "4f78272c-9bc7-5106-b095-9d4c37423c24"}]}], "file_id": "aa70c2e8-033d-4e30-90da-d7e058dc7d72", "data_type": "Gene Expression Quantification", "id": "aa70c2e8-033d-4e30-90da-d7e058dc7d72"}, {"file_name": "7b6e55b7-ffed-4d53-baee-55f791069424.htseq.counts", "cases": [{"project": {"project_id": "TARGET-NBL", "primary_site": "Nervous System"}, "demographic": {"gender": "male"}, "samples": [{"sample_id": "a05da3cf-438e-5df3-a06a-1a79b8519cac"}]}], "file_id": "81b291b9-94c1-44ae-a8fb-af016fda16a0", "data_type": "Gene Expression Quantification", "id": "81b291b9-94c1-44ae-a8fb-af016fda16a0"}, {"file_name": "afdcbe2a-e23f-43de-9bae-ed6e146333dd.htseq.counts", "cases": [{"project": {"project_id": "TARGET-NBL", "primary_site": "Nervous System"}, "demographic": {"gender": "male"}, "samples": [{"sample_id": "37a7a9fd-e84d-58f5-bb0f-a934dedc9bf8"}]}], "file_id": "bd56f5f4-f319-4c06-9b84-1073aae81e5d", "data_type": "Gene Expression Quantification", "id": "bd56f5f4-f319-4c06-9b84-1073aae81e5d"}, {"file_name": "f1de454c-e30d-461c-91cf-9761c4bc857e.htseq.counts.gz", "cases": [{"project": {"project_id": "TARGET-AML", "primary_site": "Blood"}, "demographic": {"gender": "female"}, "samples": [{"sample_id": "920f41d4-de30-53c0-9556-039d13f90f83"}]}], "file_id": "86ff18a0-1912-4209-b13a-32e38fca3fd7", "data_type": "Gene Expression Quantification", "id": "86ff18a0-1912-4209-b13a-32e38fca3fd7"}, {"file_name": "1117b175-ca50-4f18-b29c-80ddf08130ae.htseq.counts.gz", "cases": [{"project": {"project_id": "TARGET-WT", "primary_site": "Kidney"}, "demographic": {"gender": "male"}, "samples": [{"sample_id": "f57c2dfb-6cc2-513c-a916-7691f95b4ca2"}]}], "file_id": "c3a1c87a-db53-420b-803a-b0b998d44ab7", "data_type": "Gene Expression Quantification", "id": "c3a1c87a-db53-420b-803a-b0b998d44ab7"}, {"file_name": "df7a35a0-dc6a-4801-a962-be2e171eb773.htseq.counts", "cases": [{"project": {"project_id": "TARGET-NBL", "primary_site": "Nervous System"}, "demographic": {"gender": "male"}, "samples": [{"sample_id": "6191f059-ed94-5377-96a5-f0589bb43d67"}]}], "file_id": "42e75ea9-0d88-4fb5-ab0d-909a8a512a47", "data_type": "Gene Expression Quantification", "id": "42e75ea9-0d88-4fb5-ab0d-909a8a512a47"}, {"file_name": "783ce600-0eb9-49e6-802b-b345b8268777.htseq.counts.gz", "cases": [{"project": {"project_id": "TARGET-WT", "primary_site": "Kidney"}, "demographic": {"gender": "male"}, "samples": [{"sample_id": "d4e94e9a-0442-53ed-97c0-be37f90123ce"}]}], "file_id": "f7326f61-b0ce-4eef-ab96-d4e66d8d3aab", "data_type": "Gene Expression Quantification", "id": "f7326f61-b0ce-4eef-ab96-d4e66d8d3aab"}, {"file_name": "59c25cb7-7588-4a63-8f33-582a346fd403.htseq.counts.gz", "cases": [{"project": {"project_id": "TARGET-AML", "primary_site": "Blood"}, "demographic": {"gender": "female"}, "samples": [{"sample_id": "0de783df-89e9-51f6-8a1e-540cb541b4f8"}]}], "file_id": "c97416d0-d1d7-4a1b-9e9f-143d65d76050", "data_type": "Gene Expression Quantification", "id": "c97416d0-d1d7-4a1b-9e9f-143d65d76050"}, {"file_name": "6c0e0751-cd0d-4ac5-b4e6-09246b791ef6.htseq.counts.gz", "cases": [{"project": {"project_id": "TARGET-WT", "primary_site": "Kidney"}, "demographic": {"gender": "male"}, "samples": [{"sample_id": "f2941c34-aeae-561a-a2c7-f6c786bb0d0b"}]}], "file_id": "6e4a47c0-6965-4722-9067-38c6c5116e79", "data_type": "Gene Expression Quantification", "id": "6e4a47c0-6965-4722-9067-38c6c5116e79"}, {"file_name": "7c2b0108-1231-4543-a8bf-eb6644e76f41.htseq.counts", "cases": [{"project": {"project_id": "TARGET-NBL", "primary_site": "Nervous System"}, "demographic": {"gender": "male"}, "samples": [{"sample_id": "ca6d34d5-f2cb-557c-9f3a-4f78a2be7732"}]}], "file_id": "42f845a0-e2ce-4724-b405-c8978215c2e8", "data_type": "Gene Expression Quantification", "id": "42f845a0-e2ce-4724-b405-c8978215c2e8"}, {"file_name": "48989cec-1e35-4065-b9cf-f765bc300d3a.htseq.counts.gz", "cases": [{"project": {"project_id": "TARGET-AML", "primary_site": "Blood"}, "demographic": {"gender": "female"}, "samples": [{"sample_id": "f3a7c02c-5ded-59fa-9fdb-e48b5c71837a"}]}], "file_id": "5d7e00ae-d9bd-4525-8a81-3d1a9a1b8ba7", "data_type": "Gene Expression Quantification", "id": "5d7e00ae-d9bd-4525-8a81-3d1a9a1b8ba7"}, {"file_name": "06577849-42c5-444f-b493-260112753624.htseq.counts.gz", "cases": [{"project": {"project_id": "TARGET-WT", "primary_site": "Kidney"}, "demographic": {"gender": "female"}, "samples": [{"sample_id": "b16947c9-ecf1-5c04-9240-c809cd3fd6b8"}]}], "file_id": "e626c909-250b-4a3c-895c-768a80631ebd", "data_type": "Gene Expression Quantification", "id": "e626c909-250b-4a3c-895c-768a80631ebd"}, {"file_name": "3e0d7f63-425e-4f4e-97a7-ac6bc1ee010c.htseq.counts.gz", "cases": [{"project": {"project_id": "TARGET-AML", "primary_site": "Blood"}, "demographic": {"gender": "male"}, "samples": [{"sample_id": "54fcf7eb-30c4-5aa4-9365-1334c83f4ab7"}]}], "file_id": "63197226-aa61-44b1-9e94-f0ab8368a7a9", "data_type": "Gene Expression Quantification", "id": "63197226-aa61-44b1-9e94-f0ab8368a7a9"}, {"file_name": "aec58ea9-d9e2-46ad-93e9-231ea3e2a902.htseq.counts.gz", "cases": [{"project": {"project_id": "TARGET-WT", "primary_site": "Kidney"}, "demographic": {"gender": "female"}, "samples": [{"sample_id": "b92c6d0c-c661-53e5-895a-09bcd3c3c3ba"}]}], "file_id": "ebd44e5a-86aa-4757-894b-2696bc303f8f", "data_type": "Gene Expression Quantification", "id": "ebd44e5a-86aa-4757-894b-2696bc303f8f"}, {"file_name": "85af4f77-be45-4871-bdfb-f5b60223ed2f.htseq.counts", "cases": [{"project": {"project_id": "TARGET-NBL", "primary_site": "Nervous System"}, "demographic": {"gender": "female"}, "samples": [{"sample_id": "fcc118b1-890a-5f47-b3e1-40061653ab61"}]}], "file_id": "3868b38a-cca1-46d4-b880-9285c67a40a4", "data_type": "Gene Expression Quantification", "id": "3868b38a-cca1-46d4-b880-9285c67a40a4"}, {"file_name": "3b1f180a-cdfb-42b5-bafc-2fdc760b6460.htseq.counts.gz", "cases": [{"project": {"project_id": "TARGET-AML", "primary_site": "Blood"}, "demographic": {"gender": "male"}, "samples": [{"sample_id": "e9bb129c-5ed6-50fd-ac5e-772b90fde439"}]}], "file_id": "37921b31-ddbe-4a1d-999f-d2978783f4c6", "data_type": "Gene Expression Quantification", "id": "37921b31-ddbe-4a1d-999f-d2978783f4c6"}, {"file_name": "c8039c02-8758-41b9-8a17-d843d8f62be1.htseq.counts.gz", "cases": [{"project": {"project_id": "TARGET-WT", "primary_site": "Kidney"}, "demographic": {"gender": "male"}, "samples": [{"sample_id": "3c538c7e-00eb-58a4-bce7-8569765e5243"}]}], "file_id": "d80e1dc0-cbbf-4129-8d34-8d063db38e48", "data_type": "Gene Expression Quantification", "id": "d80e1dc0-cbbf-4129-8d34-8d063db38e48"}, {"file_name": "bb8ccd64-756b-4373-8d48-18ff6ae1b8ff.htseq.counts.gz", "cases": [{"project": {"project_id": "TARGET-AML", "primary_site": "Blood"}, "demographic": {"gender": "female"}, "samples": [{"sample_id": "ed1ba16f-82d4-5a9e-b29c-72ca3f5857a8"}]}], "file_id": "7680d3f9-327c-41b3-87ee-87975d05d5c4", "data_type": "Gene Expression Quantification", "id": "7680d3f9-327c-41b3-87ee-87975d05d5c4"}, {"file_name": "2f6f61ff-8881-4f03-8b8e-d6d9cc00f1c7.htseq.counts.gz", "cases": [{"project": {"project_id": "TARGET-WT", "primary_site": "Kidney"}, "demographic": {"gender": "female"}, "samples": [{"sample_id": "7769dd02-a2d6-5339-bea0-ebfbdff8b440"}]}], "file_id": "3ba835d7-414a-470a-a83d-4bd870da72e7", "data_type": "Gene Expression Quantification", "id": "3ba835d7-414a-470a-a83d-4bd870da72e7"}, {"file_name": "2f2ca307-4a07-4dfe-9c97-d07fc84b5e37.htseq.counts", "cases": [{"project": {"project_id": "TARGET-NBL", "primary_site": "Nervous System"}, "demographic": {"gender": "male"}, "samples": [{"sample_id": "18e5b975-bf91-5d69-97ef-b6147970d73a"}]}], "file_id": "c24ae1da-789e-4fd0-b004-ed85d8c39d65", "data_type": "Gene Expression Quantification", "id": "c24ae1da-789e-4fd0-b004-ed85d8c39d65"}, {"file_name": "5978ee3a-f13f-4368-9df0-1f839aa1942c.htseq.counts.gz", "cases": [{"project": {"project_id": "TARGET-WT", "primary_site": "Kidney"}, "demographic": {"gender": "male"}, "samples": [{"sample_id": "64eb5bf9-02df-5567-b6a1-bd2220966e83"}]}], "file_id": "a8ad0094-9fe2-4c5a-a732-69ad2304a4e2", "data_type": "Gene Expression Quantification", "id": "a8ad0094-9fe2-4c5a-a732-69ad2304a4e2"}, {"file_name": "81988869-de07-4b87-ba00-247b93f58732.htseq.counts", "cases": [{"project": {"project_id": "TARGET-NBL", "primary_site": "Nervous System"}, "demographic": {"gender": "female"}, "samples": [{"sample_id": "ee521d8f-5e14-5fbe-8585-623c1617529e"}]}], "file_id": "f8b875ad-91f9-4e9f-a358-7ef08bc92c09", "data_type": "Gene Expression Quantification", "id": "f8b875ad-91f9-4e9f-a358-7ef08bc92c09"}, {"file_name": "de309a29-92f1-4f73-928d-f286360251c7.htseq.counts.gz", "cases": [{"project": {"project_id": "TARGET-AML", "primary_site": "Blood"}, "demographic": {"gender": "female"}, "samples": [{"sample_id": "5b56677b-7883-55cc-8394-eb9f7f3c9633"}]}], "file_id": "505ef3df-020d-4c75-9f71-ec284d325e05", "data_type": "Gene Expression Quantification", "id": "505ef3df-020d-4c75-9f71-ec284d325e05"}, {"file_name": "dd1c5325-930a-48f4-8e9b-eca99b9d36c7.htseq.counts.gz", "cases": [{"project": {"project_id": "TARGET-WT", "primary_site": "Kidney"}, "demographic": {"gender": "female"}, "samples": [{"sample_id": "c6307ec8-12a4-5c28-9862-02fa8252a8f9"}]}], "file_id": "8619d3bc-a878-4b43-a0ab-173f7b64e383", "data_type": "Gene Expression Quantification", "id": "8619d3bc-a878-4b43-a0ab-173f7b64e383"}, {"file_name": "6b57be91-5813-4522-9fd2-dae0e0c616e3.htseq.counts.gz", "cases": [{"project": {"project_id": "TARGET-AML", "primary_site": "Blood"}, "demographic": {"gender": "male"}, "samples": [{"sample_id": "0ad87c9f-cf48-543f-a93e-33a835549fa1"}]}], "file_id": "e62a6d69-90e8-43ee-9245-e61157575f47", "data_type": "Gene Expression Quantification", "id": "e62a6d69-90e8-43ee-9245-e61157575f47"}, {"file_name": "d1b4168a-1cdf-48c4-b5b6-6084f689e703.htseq.counts.gz", "cases": [{"project": {"project_id": "TARGET-WT", "primary_site": "Kidney"}, "demographic": {"gender": "female"}, "samples": [{"sample_id": "f4471c08-b700-5484-9506-f760895dbf18"}]}], "file_id": "5ff94af6-dffe-4635-a79f-db3d69cfe227", "data_type": "Gene Expression Quantification", "id": "5ff94af6-dffe-4635-a79f-db3d69cfe227"}, {"file_name": "5852dc4e-6845-4968-8c96-990de0579446.htseq.counts.gz", "cases": [{"project": {"project_id": "TARGET-WT", "primary_site": "Kidney"}, "demographic": {"gender": "male"}, "samples": [{"sample_id": "cb847e53-4e67-5fb7-aa4e-7eccde29621b"}]}], "file_id": "8f3b19d6-f7b4-47b6-ab1d-3fea2e4b735c", "data_type": "Gene Expression Quantification", "id": "8f3b19d6-f7b4-47b6-ab1d-3fea2e4b735c"}, {"file_name": "efcaa7e4-d88e-4791-a6a1-1d96e3e6f065.htseq.counts.gz", "cases": [{"project": {"project_id": "TARGET-AML", "primary_site": "Blood"}, "demographic": {"gender": "male"}, "samples": [{"sample_id": "ac905707-132f-5574-b4c6-94a6cfa4566f"}]}], "file_id": "a2490ed3-cecd-45d7-b8d8-d9cd62d18807", "data_type": "Gene Expression Quantification", "id": "a2490ed3-cecd-45d7-b8d8-d9cd62d18807"}, {"file_name": "8c78ab0d-7e08-4518-94d3-dca147c8bb97.htseq.counts", "cases": [{"project": {"project_id": "TARGET-NBL", "primary_site": "Nervous System"}, "demographic": {"gender": "female"}, "samples": [{"sample_id": "8bbe4d84-ab83-5457-ab55-805524cf07d7"}]}], "file_id": "1ef3c255-e94a-4ed4-86b0-a55661a9a884", "data_type": "Gene Expression Quantification", "id": "1ef3c255-e94a-4ed4-86b0-a55661a9a884"}, {"file_name": "2b15a3bb-27a1-4ce0-bbbd-471e699916d2.htseq.counts.gz", "cases": [{"project": {"project_id": "TARGET-WT", "primary_site": "Kidney"}, "demographic": {"gender": "male"}, "samples": [{"sample_id": "a33c43a8-d0e0-5e49-9d85-072d633c5225"}]}], "file_id": "c31e2a89-2e9f-45dc-bb3c-7da78c6407d1", "data_type": "Gene Expression Quantification", "id": "c31e2a89-2e9f-45dc-bb3c-7da78c6407d1"}, {"file_name": "89721483-3a16-4ba5-a5f6-98eff5dd9b71.htseq.counts.gz", "cases": [{"project": {"project_id": "TARGET-AML", "primary_site": "Blood"}, "demographic": {"gender": "female"}, "samples": [{"sample_id": "a87f8372-151d-5b77-af1e-99bdd3c07cad"}]}], "file_id": "2fee2647-1d3e-4183-9f00-4ee68f25805a", "data_type": "Gene Expression Quantification", "id": "2fee2647-1d3e-4183-9f00-4ee68f25805a"}, {"file_name": "06a9c4ce-55a4-4dd7-967c-d72e8da7a89c.htseq.counts.gz", "cases": [{"project": {"project_id": "TARGET-AML", "primary_site": "Blood"}, "demographic": {"gender": "female"}, "samples": [{"sample_id": "0f0b6821-529a-5897-ac4f-622435276fb8"}]}], "file_id": "4ce5fd49-d1e6-42ee-b128-36c7c8fef322", "data_type": "Gene Expression Quantification", "id": "4ce5fd49-d1e6-42ee-b128-36c7c8fef322"}, {"file_name": "9b93ed0a-1316-4dd4-bfd8-b6807927a7ad.htseq.counts", "cases": [{"project": {"project_id": "TARGET-NBL", "primary_site": "Nervous System"}, "demographic": {"gender": "female"}, "samples": [{"sample_id": "32f153c8-2293-5361-8aef-a8f2c185ad8a"}]}], "file_id": "28e5f49a-24a8-422c-a905-907f764c6e42", "data_type": "Gene Expression Quantification", "id": "28e5f49a-24a8-422c-a905-907f764c6e42"}, {"file_name": "50b79e4d-0e67-4d79-914f-924e0ea920d9.htseq.counts.gz", "cases": [{"project": {"project_id": "TARGET-AML", "primary_site": "Blood"}, "demographic": {"gender": "female"}, "samples": [{"sample_id": "97d77fbb-d7df-525b-91dc-6641f9c367a4"}]}], "file_id": "55cc928d-fce3-4e8f-a955-58df162052ad", "data_type": "Gene Expression Quantification", "id": "55cc928d-fce3-4e8f-a955-58df162052ad"}, {"file_name": "4f1dd0bf-af3c-4a90-a9a1-b5423a2da403.htseq.counts.gz", "cases": [{"project": {"project_id": "TARGET-AML", "primary_site": "Blood"}, "demographic": {"gender": "female"}, "samples": [{"sample_id": "917c8f8b-b066-5974-86ee-d202b6dc5565"}]}], "file_id": "e39c77d6-01cc-4d64-95af-4fdd96de2852", "data_type": "Gene Expression Quantification", "id": "e39c77d6-01cc-4d64-95af-4fdd96de2852"}, {"file_name": "3a3fc3ce-0cd9-41a9-a568-7bf1f644a4d5.htseq.counts.gz", "cases": [{"project": {"project_id": "TARGET-AML", "primary_site": "Blood"}, "demographic": {"gender": "male"}, "samples": [{"sample_id": "ebbf8ca9-8540-5d7c-9855-63a5c14b117d"}]}], "file_id": "c171602b-e813-432a-b749-4df81d2c0172", "data_type": "Gene Expression Quantification", "id": "c171602b-e813-432a-b749-4df81d2c0172"}, {"file_name": "87c94a89-6345-4079-9e0d-17a91d6a96ed.htseq.counts", "cases": [{"project": {"project_id": "TARGET-NBL", "primary_site": "Nervous System"}, "demographic": {"gender": "male"}, "samples": [{"sample_id": "58e3fcc1-3aa7-577f-9471-2a006183cec2"}]}], "file_id": "83772960-4d13-4142-8b3d-263a10fc1fd3", "data_type": "Gene Expression Quantification", "id": "83772960-4d13-4142-8b3d-263a10fc1fd3"}, {"file_name": "ca57d990-f70a-4506-ae83-4e0a9b46a02d.htseq.counts.gz", "cases": [{"project": {"project_id": "TARGET-WT", "primary_site": "Kidney"}, "demographic": {"gender": "male"}, "samples": [{"sample_id": "60aafbeb-76b3-5a78-b52e-e3dca04663f1"}]}], "file_id": "090330b6-5568-45b5-bd4d-3d4b3b8d846c", "data_type": "Gene Expression Quantification", "id": "090330b6-5568-45b5-bd4d-3d4b3b8d846c"}, {"file_name": "ae90fe2e-b857-463a-be07-b4ad9babc334.htseq.counts", "cases": [{"project": {"project_id": "TARGET-NBL", "primary_site": "Nervous System"}, "demographic": {"gender": "male"}, "samples": [{"sample_id": "d53d3258-628d-5745-9c1a-41209b194eb2"}]}], "file_id": "0fc032d0-0bd8-4220-b258-b53f818fb09d", "data_type": "Gene Expression Quantification", "id": "0fc032d0-0bd8-4220-b258-b53f818fb09d"}, {"file_name": "f5b7df2d-6f28-4d84-b6d7-2112c4ce1412.htseq.counts.gz", "cases": [{"project": {"project_id": "TARGET-AML", "primary_site": "Blood"}, "demographic": {"gender": "female"}, "samples": [{"sample_id": "7b2d0050-551b-5855-b9ff-18b131208e90"}]}], "file_id": "5792ad07-ae81-435d-a46c-c5f64fdf86fa", "data_type": "Gene Expression Quantification", "id": "5792ad07-ae81-435d-a46c-c5f64fdf86fa"}, {"file_name": "26b31d84-588c-4d53-af27-9a374294d5c2.htseq.counts.gz", "cases": [{"project": {"project_id": "TARGET-RT", "primary_site": "Kidney"}, "demographic": {"gender": "female"}, "samples": [{"sample_id": "4e73ff2a-e02a-56c6-a1ff-343ae52a784f"}]}], "file_id": "f8f71569-2f31-42a4-a98e-1174b8d316c1", "data_type": "Gene Expression Quantification", "id": "f8f71569-2f31-42a4-a98e-1174b8d316c1"}, {"file_name": "1968c376-3ebb-40b0-8c88-88f5a4062807.htseq.counts.gz", "cases": [{"project": {"project_id": "TARGET-WT", "primary_site": "Kidney"}, "demographic": {"gender": "female"}, "samples": [{"sample_id": "5aadd092-316b-55b0-8ad4-ec4dee9ed90d"}]}], "file_id": "86d4fa41-b87b-4bf0-88a8-db6cbd72970b", "data_type": "Gene Expression Quantification", "id": "86d4fa41-b87b-4bf0-88a8-db6cbd72970b"}, {"file_name": "65beade8-879a-41f6-a731-8fe934be4a93.htseq.counts.gz", "cases": [{"project": {"project_id": "TARGET-WT", "primary_site": "Kidney"}, "demographic": {"gender": "female"}, "samples": [{"sample_id": "ecbba3df-78da-5c9f-a46f-ca1d9af6e872"}]}], "file_id": "ed2656ee-852f-4d05-aa80-cff7bcf5dcb8", "data_type": "Gene Expression Quantification", "id": "ed2656ee-852f-4d05-aa80-cff7bcf5dcb8"}, {"file_name": "a3bf1ee6-d71c-43ee-b775-6d28176bb8a9.htseq.counts", "cases": [{"project": {"project_id": "TARGET-NBL", "primary_site": "Nervous System"}, "demographic": {"gender": "male"}, "samples": [{"sample_id": "bf86ccff-bb97-5d1e-896a-1a50c44a76c1"}]}], "file_id": "7c631538-8e1e-4319-af4e-cca68b235216", "data_type": "Gene Expression Quantification", "id": "7c631538-8e1e-4319-af4e-cca68b235216"}, {"file_name": "f1dcd148-bd99-4eba-a5a2-0e51e8b22414.htseq.counts.gz", "cases": [{"project": {"project_id": "TARGET-WT", "primary_site": "Kidney"}, "demographic": {"gender": "female"}, "samples": [{"sample_id": "5042e229-e2b4-5b2c-8c95-e4fe58daf4e9"}]}], "file_id": "c3f03765-c812-49c6-a858-f934193d9f70", "data_type": "Gene Expression Quantification", "id": "c3f03765-c812-49c6-a858-f934193d9f70"}, {"file_name": "86804d13-b05b-4c23-8e83-653fc4212de7.htseq.counts", "cases": [{"project": {"project_id": "TARGET-NBL", "primary_site": "Nervous System"}, "demographic": {"gender": "male"}, "samples": [{"sample_id": "edaabb22-065f-563c-9f0f-a328e9117c64"}]}], "file_id": "ea4faf2f-070c-4346-9681-b23e31ea7c34", "data_type": "Gene Expression Quantification", "id": "ea4faf2f-070c-4346-9681-b23e31ea7c34"}, {"file_name": "e3eabcbe-d0e8-42a2-8533-2abbfcb84b20.htseq.counts", "cases": [{"project": {"project_id": "TARGET-NBL", "primary_site": "Nervous System"}, "demographic": {"gender": "male"}, "samples": [{"sample_id": "6b1c47df-5f1c-5794-a42e-048751aae1f8"}]}], "file_id": "536cd03b-0bc8-4b86-8535-5b1edde385aa", "data_type": "Gene Expression Quantification", "id": "536cd03b-0bc8-4b86-8535-5b1edde385aa"}, {"file_name": "fe565704-0d3a-4aea-abae-3328498cdfde.htseq.counts.gz", "cases": [{"project": {"project_id": "TARGET-WT", "primary_site": "Kidney"}, "demographic": {"gender": "male"}, "samples": [{"sample_id": "aee5c033-e1e0-5164-a5ad-cd71c0faac9e"}]}], "file_id": "a25fc554-ed11-4d7f-abf5-2c8335cf57a0", "data_type": "Gene Expression Quantification", "id": "a25fc554-ed11-4d7f-abf5-2c8335cf57a0"}, {"file_name": "c4255855-0598-4425-af32-2d2d52c21f22.htseq.counts.gz", "cases": [{"project": {"project_id": "TARGET-AML", "primary_site": "Blood"}, "demographic": {"gender": "male"}, "samples": [{"sample_id": "1f6fd6c2-cfb0-5aa0-81aa-cc61c097135f"}]}], "file_id": "82d1603d-15f9-40b2-85ce-20368b2c26f0", "data_type": "Gene Expression Quantification", "id": "82d1603d-15f9-40b2-85ce-20368b2c26f0"}, {"file_name": "878b9a4b-d62b-49e9-924a-8bfcf27e5ec6.htseq.counts.gz", "cases": [{"project": {"project_id": "TARGET-AML", "primary_site": "Blood"}, "demographic": {"gender": "male"}, "samples": [{"sample_id": "1616464c-03d9-5644-98fd-5ab6388ffe51"}]}], "file_id": "9ec81840-ea4a-4354-830b-9359318edb8f", "data_type": "Gene Expression Quantification", "id": "9ec81840-ea4a-4354-830b-9359318edb8f"}, {"file_name": "afd2b4fc-a690-4716-9c94-5769cd117089.htseq.counts", "cases": [{"project": {"project_id": "TARGET-NBL", "primary_site": "Nervous System"}, "demographic": {"gender": "female"}, "samples": [{"sample_id": "08951b54-c24a-5b35-92cd-7ba1f901e9d5"}]}], "file_id": "0d795bf1-2d40-4a3f-8379-c7861d4434f8", "data_type": "Gene Expression Quantification", "id": "0d795bf1-2d40-4a3f-8379-c7861d4434f8"}, {"file_name": "f4b00b04-6341-4dbb-9dc3-102335d7b102.htseq.counts.gz", "cases": [{"project": {"project_id": "TARGET-AML", "primary_site": "Blood"}, "demographic": {"gender": "male"}, "samples": [{"sample_id": "ecb8da08-85c4-5825-8cae-cce1efb56c43"}]}], "file_id": "dacf3450-bb60-43ff-8862-561dc8dabdf3", "data_type": "Gene Expression Quantification", "id": "dacf3450-bb60-43ff-8862-561dc8dabdf3"}, {"file_name": "8ec5dd32-aab9-4c78-a5c2-dc9e0d55af65.htseq.counts", "cases": [{"project": {"project_id": "TARGET-NBL", "primary_site": "Nervous System"}, "demographic": {"gender": "male"}, "samples": [{"sample_id": "98604101-597b-5a6d-8c13-e3f4f8783a02"}]}], "file_id": "9b7a55c1-c8ca-46cd-a221-63b951aa01d8", "data_type": "Gene Expression Quantification", "id": "9b7a55c1-c8ca-46cd-a221-63b951aa01d8"}, {"file_name": "7a0143ee-946a-44e6-bccb-1c3a3fda90b6.htseq.counts.gz", "cases": [{"project": {"project_id": "TARGET-AML", "primary_site": "Blood"}, "demographic": {"gender": "female"}, "samples": [{"sample_id": "e9c5877d-e530-5954-8335-613dbbd634d0"}]}], "file_id": "d78df3a7-ef1a-4909-942d-89f7c8b09f1e", "data_type": "Gene Expression Quantification", "id": "d78df3a7-ef1a-4909-942d-89f7c8b09f1e"}, {"file_name": "954446f3-2e83-4092-ba80-0457284e496c.htseq.counts.gz", "cases": [{"project": {"project_id": "TARGET-AML", "primary_site": "Blood"}, "demographic": {"gender": "female"}, "samples": [{"sample_id": "fe284b48-6e30-522d-8f39-03549c39ca38"}]}], "file_id": "f50fbbca-3c52-448a-9f64-60b043561089", "data_type": "Gene Expression Quantification", "id": "f50fbbca-3c52-448a-9f64-60b043561089"}, {"file_name": "a16e680a-52ef-4d61-a2e7-d6dcd7da7616.htseq.counts.gz", "cases": [{"project": {"project_id": "TARGET-WT", "primary_site": "Kidney"}, "demographic": {"gender": "female"}, "samples": [{"sample_id": "903635d4-8d9a-5f05-b0bf-54c48d1a7f35"}]}], "file_id": "fb477a18-d1e4-48ec-bfb2-48f692ae0a18", "data_type": "Gene Expression Quantification", "id": "fb477a18-d1e4-48ec-bfb2-48f692ae0a18"}, {"file_name": "ace0c57d-c209-4e59-a8d7-c26cf72bce1a.htseq.counts", "cases": [{"project": {"project_id": "TARGET-NBL", "primary_site": "Nervous System"}, "demographic": {"gender": "male"}, "samples": [{"sample_id": "cb0a3468-ad8c-5933-a1a2-095c5b692743"}]}], "file_id": "853c6091-72c5-43bd-a105-843ed703f21d", "data_type": "Gene Expression Quantification", "id": "853c6091-72c5-43bd-a105-843ed703f21d"}, {"file_name": "b5514b40-5b8b-4faf-a202-49438c386032.htseq.counts.gz", "cases": [{"project": {"project_id": "TARGET-AML", "primary_site": "Blood"}, "demographic": {"gender": "male"}, "samples": [{"sample_id": "0a522cf3-d8cc-5c55-8377-72738ef4ee67"}]}], "file_id": "bc26fe0f-48ad-43e7-8e6c-2fe928def4eb", "data_type": "Gene Expression Quantification", "id": "bc26fe0f-48ad-43e7-8e6c-2fe928def4eb"}, {"file_name": "81cc4c97-7c6d-4af6-a482-d5882694e787.htseq.counts.gz", "cases": [{"project": {"project_id": "TARGET-AML", "primary_site": "Blood"}, "demographic": {"gender": "male"}, "samples": [{"sample_id": "d75acd34-2837-5fd9-aba4-7fd82b9ff6e3"}]}], "file_id": "4cb805b4-21fe-4082-85b3-c68e4fb9a3a7", "data_type": "Gene Expression Quantification", "id": "4cb805b4-21fe-4082-85b3-c68e4fb9a3a7"}], "pagination": {"count": 74, "sort": "", "from": 11500, "page": 24, "total": 11574, "pages": 24, "size": 500}}, "warnings": {}}